Homework 4: Functions and Tidy Data
…
Average percentage for Trump is 45.81684%

Average percentage for Biden is 45.93184%

4d. What is the average difference between the two candidates by state and national polls? Note, youll need to make this a wide data frame to answer! And, well, try the pivot without this advice first, but then

Try to pivot

pres_wide <- pres_new %>%
  pivot_wider(names_from = candidate_name,
              values_from = pct)

pres_wide

## # A tibble: 68 x 38
##    question_id poll_id cycle state pollster_id pollster sponsor_ids sponsors
##          <int>   <int> <int> <fct>       <int> <fct>    <fct>       <fct>   
##  1      131666   70576  2020 "Nor         383 Public  ""          ""      
##  2      131666   70576  2020 "Nor         383 Public  ""          ""      
##  3      131649   70573  2020 ""           1189 Morning ""          ""      
##  4      131649   70573  2020 ""           1189 Morning ""          ""      
##  5      131592   70546  2020 ""            744 Ipsos    ""          ""      
##  6      131592   70546  2020 ""            744 Ipsos    ""          ""      
##  7      131599   70546  2020 ""            744 Ipsos    ""          ""      
##  8      131599   70546  2020 ""            744 Ipsos    ""          ""      
##  9      131600   70546  2020 ""            744 Ipsos    ""          ""      
## 10      131600   70546  2020 ""            744 Ipsos    ""          ""      
## #  with 58 more rows, and 30 more variables: display_name <fct>,
## #   pollster_rating_id <int>, pollster_rating_name <fct>, fte_grade <fct>,
## #   sample_size <int>, population <fct>, population_full <fct>,
## #   methodology <fct>, office_type <fct>, seat_number <int>, seat_name <lgl>,
## #   start_date <date>, end_date <fct>, election_date <fct>,
## #   sponsor_candidate <fct>, internal <lgl>, partisan <fct>, tracking <lgl>,
## #   nationwide_batch <lgl>, ranked_choice_reallocated <lgl>, created_at <fct>,
## #   notes <fct>, url <fct>, stage <fct>, race_id <int>, answer <fct>,
## #   candidate_id <int>, candidate_party <fct>, `Joseph R. Biden Jr.` <dbl>,
…
Say, first make it a tibble or data frame,

biden_pop_draws_df <- as.data.frame(biden_pop_draws)

And then pivot it to long, such that you end up with a column that has an identifier for sim and a column with a single value from that sim? (Oh, and for all columns, cols = everything())

biden_pop_draws_long <- biden_pop_draws_df %>%
  pivot_longer(cols = everything(),
               names_to = "sim",
               values_to = "percentage")

biden_pop_draws_long

## # A tibble: 50,000 x 2
##    sim   percentage
##    <chr>      <dbl>
##  1 V1          45.8
##  2 V2          45.9
##  3 V3          49.7
##  4 V4          46.4
##  5 V5          46.1
##  6 V6          48.8
##  7 V7          52.2
##  8 V8          54.8
##  9 V9          52.0
## 10 V10         43.9
## #  with 49,990 more rows
…
biden_boot_stats <- biden_pop_draws_long %>%
  # group by sim 
  group_by(sim) %>%
  # mutate it to get mean of each sim # 
  summarize(avg = mean(percentage),
         # get CIs
         ci_upper = quantile(percentage, probs = 0.975),
         ci_lower = quantile(percentage, probs = 0.025))

## `summarise()` ungrouping output (override with `.groups` argument)

biden_boot_stats

## # A tibble: 1,000 x 4
##    sim     avg ci_upper ci_lower
##    <chr> <dbl>    <dbl>    <dbl>
##  1 V1     48.1     53.2     43.8
##  2 V10    48.8     53.5     43.3
##  3 V100   49.6     54.8     45.3
##  4 V1000  48.3     53.1     43.4
##  5 V101   48.7     53.4     44.0
##  6 V102   49.4     53.6     43.8
##  7 V103   49.1     53.2     44.2
##  8 V104   48.7     53.6     43.8
##  9 V105   49.0     53.5     43.9
## 10 V106   49.3     53.6     43.4
## #  with 990 more rows
…
